40,00
0,00
0,00
0,00
40,00
0,00
0,00
0,00
40,00
0,00
0,00
0,00
40,00
0,00
0,00
0,00
40,00
0,00
0,00
0,00
40,00
0,00
0,00
0,00
40,00
0,00
0,00
0,00
40,00
0,00
0,00
0,00
40,00
0,00
0,00
0,00
40,00
0,00
0,00
0,00
40,00
0,00
0,00
0,00
40,00
0,00
0,00
0,00
40,00
0,00
0,00
0,00
40,00
0,00
0,00
0,00
40,00
0,00
0,00
0,00
40,00
0,00
0,00
0,00
40,00
0,00
0,00
0,00
40,00
0,00
0,00
0,00
40,00
0,00
0,00
0,00
40,00
0,00
0,00
0,00
40,00
0,00
0,00
0,00
40,00
0,00
0,00
0,00
40,00
0,00
0,00
0,00
40,00
0,00
0,00
0,00
40,00
0,00
0,00
0,00
40,00
0,00
0,00
0,00
40,00
0,00
0,00
0,00
40,00
0,00
0,00
0,00
40,00
0,00
0,00
0,00
40,00
0,00
0,00
0,00
40,00
0,00
0,00
0,00
40,00
0,00
0,00
0,00
40,00
0,00
0,00
0,00
40,00
0,00
0,00
0,00
40,00
0,00
0,00
0,00
40,00
0,00
0,00
0,00
40,00
0,00
0,00
0,00
40,00
0,00
0,00
0,00
40,00
0,00
0,00
0,00
40,00
0,00
0,00
0,00
40,00
0,00
0,00
0,00
40,00
0,00
0,00
0,00
40,00
0,00
0,00
0,00
40,00
0,00
0,00
0,00
40,00
0,00
0,00
0,00
40,00
0,00
0,00
0,00
40,00
0,00
0,00
0,00
40,00
0,00
0,00
0,00
40,00
0,00
0,00
0,00
40,00
0,00
0,00
0,00
40,00
0,00
0,00
0,00
40,00
0,00
0,00
0,00
40,00
0,00
0,00
0,00
40,00
0,00
0,00
0,00
40,00
0,00
0,00
0,00
40,00
0,00
0,00
0,00
40,00
0,00
0,00
0,00
40,00
0,00
0,00
0,00
40,00
0,00
0,00
0,00
40,00
0,00
0,00
0,00
40,00
0,00
0,00
0,00
40,00
0,00
0,00
0,00
40,00
0,00
0,00
0,00
40,00
0,00
0,00
0,00
40,00
0,00
0,00
0,00
40,00
0,00
0,00
0,00
40,00
0,00
0,00
0,00
40,00
0,00
0,00
0,00
40,00
0,00
0,00
0,00
40,00
0,00
0,00
0,00
40,00
0,00
0,00
0,00
40,00
0,00
0,00
0,00
40,00
0,00
0,00
0,00
40,00
0,00
0,00
0,00
